<svg width="22" height="22" viewBox="0 0 22 22" fill="none" xmlns="http://www.w3.org/2000/svg">
<path d="M17.0183 17.4851L20.5423 21M19.7551 10.7666C19.7551 15.7308 15.7308 19.7551 10.7666 19.7551C5.80235 19.7551 1.77803 15.7308 1.77803 10.7666C1.77803 5.80235 5.80235 1.77803 10.7666 1.77803C15.7308 1.77803 19.7551 5.80235 19.7551 10.7666Z" stroke="#212121" stroke-width="2" stroke-linecap="round" stroke-linejoin="round"/>
</svg>
